{
    "_token": "pEiqCVggqLNaadD8x1eNEL5dN7RrKf4l36KVQEZC",
    "test_id": "21",
    "total_questions": "50",
    "totalRemains": "706",
    "language": "hindi",
    "is_marked": {
        "3913": "0",
        "3914": "0",
        "3915": "0",
        "3916": "0",
        "3917": "0",
        "3918": "0",
        "3919": "0",
        "3920": "0",
        "3921": "0",
        "3922": "0",
        "3923": "0",
        "3924": "0",
        "3925": "0",
        "3926": "0",
        "3927": "0",
        "3928": "0",
        "3929": "0",
        "3930": "0",
        "3931": "0",
        "3932": "0",
        "3955": "0",
        "3956": "0",
        "3957": "0",
        "3958": "0",
        "3959": "0",
        "3960": "0",
        "3961": "0",
        "3962": "0",
        "3948": "0",
        "3949": "0",
        "3950": "0",
        "3951": "0",
        "3952": "0",
        "3953": "0",
        "3954": "0",
        "3933": "0",
        "3934": "0",
        "3935": "0",
        "3936": "0",
        "3937": "0",
        "3938": "0",
        "3939": "0",
        "3940": "0",
        "3941": "0",
        "3942": "0",
        "3943": "0",
        "3944": "0",
        "3945": "0",
        "3946": "0",
        "3947": "0"
    },
    "option": {
        "3948": "D",
        "3949": "D",
        "3950": "C",
        "3951": "A",
        "3952": "A",
        "3953": "D",
        "3933": "D",
        "3935": "C",
        "3936": "D",
        "3937": "D",
        "3938": "A",
        "3939": "A",
        "3940": "B",
        "3942": "B",
        "3943": "A",
        "3944": "C",
        "3945": "D",
        "3946": "A",
        "3947": "D"
    },
    "last_updated_on": "2020-03-19 12:38:16"
}