{
    "_token": "0ITOTuebv9PEZOyzqMJ9lvqr0EUOc1wRSlNl8IbK",
    "test_id": "19",
    "total_questions": "51",
    "totalRemains": "2615",
    "language": "english",
    "is_marked": {
        "70": "0",
        "616": "0",
        "214": "0",
        "4130": "0",
        "4131": "0",
        "779": "0",
        "325": "0",
        "4132": "0",
        "4133": "0",
        "1230": "0",
        "4134": "0",
        "4135": "0",
        "4137": "0",
        "4138": "0",
        "4140": "0",
        "4141": "0",
        "4142": "0",
        "4143": "0",
        "4144": "0",
        "2960": "0",
        "3856": "0",
        "3857": "0",
        "3858": "0",
        "3859": "0",
        "3860": "0",
        "3861": "0",
        "3862": "0",
        "3863": "0",
        "3848": "0",
        "3849": "0",
        "3850": "0",
        "3851": "0",
        "3852": "0",
        "3853": "0",
        "3854": "0",
        "3855": "0",
        "3833": "0",
        "3835": "0",
        "3836": "0",
        "3837": "0",
        "3838": "0",
        "3839": "0",
        "3840": "0",
        "3841": "0",
        "3842": "0",
        "3843": "0",
        "3844": "0",
        "3845": "0",
        "3846": "0",
        "3847": "0"
    },
    "last_updated_on": "2020-06-26 12:29:23"
}