{
    "_token": "9Nig3hTSoFbpBSjUl15zYjGoCYAzm3p8nhGNIYle",
    "test_id": "19",
    "total_questions": "51",
    "totalRemains": "272",
    "language": "english",
    "is_marked": {
        "70": "0",
        "616": "0",
        "214": "0",
        "4130": "0",
        "4131": "0",
        "779": "0",
        "325": "0",
        "4132": "0",
        "4133": "0",
        "1230": "0",
        "4134": "0",
        "4135": "0",
        "4137": "0",
        "4138": "0",
        "4140": "0",
        "4141": "0",
        "4142": "0",
        "4143": "0",
        "4144": "0",
        "2960": "0",
        "3856": "0",
        "3857": "0",
        "3858": "0",
        "3859": "0",
        "3860": "0",
        "3861": "0",
        "3862": "0",
        "3863": "0",
        "3848": "0",
        "3849": "0",
        "3850": "0",
        "3851": "0",
        "3852": "0",
        "3853": "0",
        "3854": "0",
        "3855": "0",
        "3833": "0",
        "3835": "0",
        "3836": "0",
        "3837": "0",
        "3838": "0",
        "3839": "0",
        "3840": "0",
        "3841": "0",
        "3842": "0",
        "3843": "0",
        "3844": "0",
        "3845": "0",
        "3846": "0",
        "3847": "0"
    },
    "option": {
        "70": "B",
        "616": "B",
        "214": "A",
        "4130": "B",
        "4131": "D",
        "779": "B",
        "325": "A",
        "4132": "A",
        "4133": "C",
        "1230": "D",
        "4134": "C",
        "4135": "B",
        "4137": "B",
        "4138": "C",
        "4140": "C",
        "4141": "A",
        "4142": "B",
        "4143": "D",
        "4144": "C",
        "2960": "B",
        "3856": "A",
        "3857": "C",
        "3858": "C",
        "3859": "A",
        "3860": "C",
        "3861": "B",
        "3862": "B",
        "3863": "B",
        "3848": "A",
        "3849": "B",
        "3850": "B",
        "3851": "C",
        "3852": "D",
        "3853": "A",
        "3854": "B",
        "3855": "A",
        "3833": "B",
        "3835": "A",
        "3836": "B",
        "3837": "D",
        "3838": "A",
        "3839": "A",
        "3840": "A",
        "3841": "C",
        "3842": "B",
        "3843": "B",
        "3844": "B",
        "3845": "B",
        "3846": "A",
        "3847": "C"
    },
    "last_updated_on": "2020-03-14 07:38:19"
}