{
    "test_id": "10",
    "total_questions": "50",
    "_token": "BFlUQo4k0LQkGljgSgEN470noK90KoZ1RtE0wD2l",
    "totalRemains": "490",
    "is_marked": {
        "98": "0",
        "329": "0",
        "687": "0",
        "691": "0",
        "1295": "0",
        "850": "0",
        "1371": "0",
        "2882": "0",
        "1077": "0",
        "2884": "0",
        "2885": "0",
        "2887": "0",
        "2888": "0",
        "198": "0",
        "2889": "0",
        "2890": "0",
        "1975": "0",
        "1976": "0",
        "1978": "0",
        "1979": "0",
        "640": "0",
        "830": "0",
        "1029": "0",
        "951": "0",
        "1110": "0",
        "1283": "0",
        "1285": "0",
        "2891": "0",
        "2892": "0",
        "2893": "0",
        "2894": "0",
        "149": "0",
        "150": "0",
        "153": "0",
        "475": "0",
        "477": "0",
        "478": "0",
        "479": "0",
        "2183": "0",
        "223": "0",
        "229": "0",
        "2895": "0",
        "2896": "0",
        "2898": "0",
        "2899": "0",
        "2902": "0",
        "2903": "0",
        "2904": "0",
        "2905": "0",
        "2906": "0"
    },
    "current_question": "20",
    "last_updated_on": "2019-09-19 04:37:07"
}