{
    "test_id": "10",
    "total_questions": "50",
    "_token": "o2UWw6RVcvEOCIPI0ePOXtznJExwsK2fU74ofq86",
    "totalRemains": "505",
    "is_marked": {
        "98": "0",
        "329": "0",
        "687": "0",
        "691": "0",
        "1295": "0",
        "850": "0",
        "1371": "0",
        "2882": "0",
        "1077": "0",
        "2884": "0",
        "2885": "0",
        "2887": "0",
        "2888": "0",
        "198": "0",
        "2889": "0",
        "2890": "0",
        "1975": "0",
        "1976": "0",
        "1978": "0",
        "1979": "0",
        "640": "0",
        "830": "0",
        "1029": "0",
        "951": "0",
        "1110": "0",
        "1283": "0",
        "1285": "0",
        "2891": "0",
        "2892": "0",
        "2893": "0",
        "2894": "0",
        "149": "0",
        "150": "0",
        "153": "0",
        "475": "0",
        "477": "0",
        "478": "0",
        "479": "0",
        "2183": "0",
        "223": "0",
        "229": "0",
        "2895": "0",
        "2896": "0",
        "2898": "0",
        "2899": "0",
        "2902": "0",
        "2903": "0",
        "2904": "0",
        "2905": "0",
        "2906": "0"
    },
    "option": {
        "850": "B",
        "1077": "A",
        "2884": "B",
        "2885": "D",
        "2887": "A",
        "2888": "B",
        "198": "C",
        "2890": "D",
        "1975": "D",
        "1976": "D",
        "1978": "D",
        "1979": "C",
        "640": "B",
        "830": "C",
        "1029": "B",
        "951": "C",
        "1110": "D",
        "1283": "B",
        "1285": "D",
        "2891": "A",
        "2892": "C",
        "2893": "D",
        "2894": "B",
        "149": "A",
        "150": "D",
        "153": "A",
        "475": "D",
        "477": "C",
        "478": "A",
        "479": "A",
        "229": "A",
        "2895": "B",
        "2896": "A",
        "2898": "A",
        "2903": "A",
        "2904": "C",
        "2905": "C",
        "2906": "A"
    },
    "current_question": "46",
    "last_updated_on": "2019-09-19 05:29:57"
}