{
    "_token": "tIJitx0rol5CZk0lfHp9YaeDyU6Q3sL37FqbeR9R",
    "test_id": "17",
    "total_questions": "50",
    "totalRemains": "587",
    "language": "english",
    "is_marked": {
        "51": "0",
        "76": "1",
        "1371": "0",
        "1079": "1",
        "331": "0",
        "4095": "0",
        "536": "0",
        "4098": "0",
        "4099": "0",
        "727": "1",
        "218": "0",
        "4100": "0",
        "4102": "1",
        "4103": "0",
        "4104": "1",
        "4105": "0",
        "4106": "0",
        "4107": "1",
        "4108": "0",
        "4109": "0",
        "4110": "0",
        "4111": "0",
        "4112": "0",
        "4113": "0",
        "4114": "0",
        "4115": "0",
        "3748": "1",
        "3749": "0",
        "3750": "0",
        "3751": "1",
        "3752": "1",
        "3753": "0",
        "3754": "0",
        "3755": "0",
        "3756": "0",
        "3733": "0",
        "3734": "0",
        "3735": "0",
        "3736": "0",
        "3737": "0",
        "3738": "0",
        "3739": "0",
        "3740": "0",
        "3741": "0",
        "3742": "0",
        "3743": "1",
        "3744": "0",
        "3745": "0",
        "3746": "0",
        "3747": "0"
    },
    "option": {
        "51": "A",
        "76": "A",
        "1371": "D",
        "1079": "A",
        "331": "C",
        "4095": "C",
        "536": "B",
        "4098": "B",
        "4099": "D",
        "727": "C",
        "218": "A",
        "4100": "A",
        "4102": "C",
        "4103": "D",
        "4104": "D",
        "4105": "C",
        "4106": "D",
        "4108": "D",
        "4109": "B",
        "4111": "D",
        "4112": "A",
        "4114": "A",
        "4115": "B",
        "3748": "C",
        "3749": "C",
        "3750": "A",
        "3753": "D",
        "3754": "C",
        "3756": "C",
        "3733": "C",
        "3734": "C",
        "3735": "B",
        "3736": "B",
        "3737": "C",
        "3738": "A",
        "3739": "B",
        "3740": "B",
        "3741": "C",
        "3742": "B",
        "3743": "D",
        "3744": "A",
        "3745": "A",
        "3746": "D",
        "3747": "C"
    },
    "last_updated_on": "2020-03-13 09:00:56"
}