{
    "_token": "M7OAipLsFVuiWBkTzcZEAJTSXJGXnu6eiSyw5WfZ",
    "test_id": "18",
    "total_questions": "50",
    "totalRemains": "2551",
    "language": "english",
    "is_marked": {
        "2968": "0",
        "2970": "0",
        "3449": "0",
        "323": "0",
        "1077": "0",
        "2994": "0",
        "1370": "0",
        "4116": "0",
        "4117": "0",
        "4118": "0",
        "4119": "0",
        "4120": "0",
        "4121": "0",
        "4122": "0",
        "4123": "0",
        "729": "0",
        "549": "0",
        "4124": "0",
        "4125": "0",
        "4126": "0",
        "3807": "0",
        "3808": "0",
        "3809": "0",
        "3810": "0",
        "3811": "0",
        "3812": "0",
        "3798": "0",
        "3799": "0",
        "3800": "0",
        "3803": "0",
        "3804": "0",
        "3806": "0",
        "4127": "0",
        "4128": "0",
        "4129": "0",
        "3783": "1",
        "3784": "0",
        "3785": "0",
        "3786": "0",
        "3787": "0",
        "3788": "0",
        "3789": "0",
        "3790": "0",
        "3791": "0",
        "3792": "0",
        "3793": "0",
        "3794": "0",
        "3795": "0",
        "3796": "0",
        "3797": "0"
    },
    "option": {
        "2968": "C",
        "2970": "D",
        "3807": "A",
        "3798": "D",
        "3799": "D",
        "3803": "C"
    },
    "last_updated_on": "2020-06-26 08:30:19"
}