{
    "_token": "tIJitx0rol5CZk0lfHp9YaeDyU6Q3sL37FqbeR9R",
    "test_id": "18",
    "total_questions": "50",
    "totalRemains": "107",
    "language": "hindi",
    "is_marked": {
        "2968": "0",
        "2970": "0",
        "3449": "0",
        "323": "0",
        "1077": "0",
        "2994": "0",
        "1370": "0",
        "4116": "0",
        "4117": "0",
        "4118": "0",
        "4119": "0",
        "4120": "0",
        "4121": "0",
        "4122": "0",
        "4123": "0",
        "729": "0",
        "549": "0",
        "4124": "0",
        "4125": "0",
        "4126": "0",
        "3807": "0",
        "3808": "0",
        "3809": "0",
        "3810": "0",
        "3811": "0",
        "3812": "0",
        "3798": "0",
        "3799": "0",
        "3800": "0",
        "3803": "0",
        "3804": "0",
        "3806": "0",
        "4127": "0",
        "4128": "0",
        "4129": "0",
        "3783": "0",
        "3784": "0",
        "3785": "0",
        "3786": "0",
        "3787": "0",
        "3788": "0",
        "3789": "0",
        "3790": "0",
        "3791": "0",
        "3792": "0",
        "3793": "0",
        "3794": "0",
        "3795": "0",
        "3796": "0",
        "3797": "0"
    },
    "option": {
        "2968": "B",
        "2970": "C",
        "3449": "B",
        "323": "A",
        "1077": "D",
        "2994": "B",
        "1370": "A",
        "4116": "B",
        "4117": "B",
        "4118": "D",
        "4119": "B",
        "4120": "A",
        "4121": "B",
        "4122": "B",
        "4123": "C",
        "549": "A",
        "4124": "D",
        "4125": "A",
        "4126": "A",
        "3807": "D",
        "3808": "B",
        "3810": "B",
        "3811": "A",
        "3798": "C",
        "3799": "C",
        "3800": "B",
        "3803": "A",
        "3804": "D",
        "4127": "A",
        "4128": "C",
        "4129": "B",
        "3783": "D",
        "3784": "D",
        "3785": "A",
        "3786": "A",
        "3787": "D",
        "3788": "A",
        "3789": "B",
        "3790": "D",
        "3791": "D",
        "3792": "D",
        "3793": "A",
        "3794": "A",
        "3795": "B",
        "3796": "C",
        "3797": "A"
    },
    "last_updated_on": "2020-03-13 10:40:07"
}