{
    "test_id": "15",
    "total_questions": "50",
    "_token": "5u146OYUlt46qfu9JirutZsggF03a1P3hPmfZJT9",
    "totalRemains": "2095",
    "is_marked": {
        "3606": "0",
        "3608": "0",
        "3609": "0",
        "3610": "0",
        "3611": "0",
        "3612": "0",
        "3613": "0",
        "3614": "0",
        "3615": "0",
        "3616": "0",
        "3617": "0",
        "3618": "0",
        "3619": "0",
        "3620": "0",
        "3621": "0",
        "3622": "0",
        "3623": "0",
        "3624": "0",
        "3625": "0",
        "3626": "0",
        "3627": "0",
        "3628": "0",
        "3629": "0",
        "3630": "0",
        "3631": "0",
        "3632": "0",
        "3633": "0",
        "3634": "0",
        "3635": "0",
        "3636": "0",
        "3637": "0",
        "3638": "0",
        "3639": "0",
        "3640": "0",
        "3641": "0",
        "3643": "0",
        "3644": "0",
        "3645": "0",
        "3646": "0",
        "3647": "0",
        "3648": "0",
        "3649": "0",
        "3650": "0",
        "3651": "0",
        "3652": "0",
        "3653": "0",
        "3654": "0",
        "3655": "0",
        "3656": "0",
        "3657": "0"
    },
    "current_question": "36",
    "last_updated_on": "2020-01-04 12:39:49"
}